{
  "EDITOR_STATE": {
    "allProjectFiles": {
      "0270fce0-8047-41d3-b644-b53010722a36": {
        "id": "0270fce0-8047-41d3-b644-b53010722a36",
        "parent": null,
        "name": "38induuupython.py",
        "type": "PYTHON_LAMBDA",
        "isDirectory": false,
        "children": [],
        "isRemovable": true,
        "filePath": "38induuupython.py",
        "cursor": {
          "lineNumber": 1,
          "column": 1
        },
        "config": {
          "runtime": "python3.8",
          "handler": "handler",
          "timeout": 60,
          "memory": 128,
          "layers": [],
          "name": "38induuupython"
        },
        "triggers": [
          {
            "resourceName": "apigusEast138induuuindunilqatstany",
            "config": {}
          }
        ]
      }
    },
    "openFiles": [
      "0270fce0-8047-41d3-b644-b53010722a36"
    ],
    "currentFileId": "0270fce0-8047-41d3-b644-b53010722a36",
    "resources": {
      "apigusEast138induuuindunilqatstany": {
        "name": "apigusEast138induuuindunilqatstany",
        "type": "API_GATEWAY",
        "config": {
          "selectedRegion": "us-east-1",
          "apiType": 1,
          "apiMode": 0,
          "apiName": "38induuu",
          "endpointType": "EDGE",
          "resourceMode": 0,
          "resourceName": "indunil/qa/tst",
          "resourcePath": "/indunil/qa/tst",
          "restMethod": "ANY",
          "proxyIntegration": false,
          "enableCORS": false,
          "stageMode": 0,
          "stageName": "test",
          "mode": 0
        }
      },
      "kinesisinduu": {
        "name": "kinesisinduu",
        "type": "Kinesis",
        "config": {
          "mode": 0,
          "StreamName": "induu",
          "shards": 1,
          "region": "us-east-1",
          "operation": "describeStream"
        }
      }
    },
    "customTemplate": {
      "syntax": "JSON",
      "overrideDefault": false,
      "dialect": null,
      "definitions": null
    },
    "envVariables": [
      {
        "lambdaId": "all",
        "varKey": "SIGMA_AWS_ACC_ID",
        "varValue": null,
        "shouldPersist": false,
        "displayOnly": false,
        "editable": false
      }
    ],
    "packageJSON": {
      "dependencies": {
        "boto3": {
          "name": "boto3",
          "language": "python",
          "version": "1.12.27",
          "dev": true,
          "notRemovable": false
        }
      }
    }
  },
  "PROJECT_META": {
    "sigmaVersion": "1.4.1.4",
    "projectName": "38induuupython",
    "projectDescription": "",
    "projectVersion": "1.0.0",
    "projectRegion": "us-east-1",
    "platform": "AWS",
    "language": "python",
    "platformRegions": {},
    "lastSave": 1596606274667
  },
  "VCS_STATE": {
    "provider": "BitBucket",
    "repo": {
      "name": "38induuupython",
      "url": "https://bitbucket.org/Indunil1992/38induuupython"
    }
  }
}